simulation/questa/uart_tb.vcd
$date
	Tue Apr 07 00:28:08 2026
$end
$version
	ModelSim Version 2020.1
$end
$timescale
	1ps
$end

$scope module tb_de0_uart_top $end
$var parameter 32 ! CLOCKS_PER_PULSE $end
$var parameter 0 " CLK_PERIOD $end
$var reg 1 # CLOCK_50 $end
$var reg 2 $ KEY [1:0] $end
$var reg 4 % SW [3:0] $end
$var wire 1 & LED [7] $end
$var wire 1 ' LED [6] $end
$var wire 1 ( LED [5] $end
$var wire 1 ) LED [4] $end
$var wire 1 * LED [3] $end
$var wire 1 + LED [2] $end
$var wire 1 , LED [1] $end
$var wire 1 - LED [0] $end
$var wire 1 . GPIO [15] $end
$var wire 1 / GPIO [14] $end
$var wire 1 0 GPIO [13] $end
$var wire 1 1 GPIO [12] $end
$var wire 1 2 GPIO [11] $end
$var wire 1 3 GPIO [10] $end
$var wire 1 4 GPIO [9] $end
$var wire 1 5 GPIO [8] $end
$var wire 1 6 GPIO [7] $end
$var wire 1 7 GPIO [6] $end
$var wire 1 8 GPIO [5] $end
$var wire 1 9 GPIO [4] $end
$var wire 1 : GPIO [3] $end
$var wire 1 ; GPIO [2] $end
$var wire 1 < GPIO [1] $end
$var wire 1 = GPIO [0] $end
$var wire 1 > TX_OUT $end
$var reg 1 ? RX_IN $end

$scope task reset $end
$upscope $end

$scope task transmit $end
$var reg 4 @ nibble [3:0] $end
$upscope $end

$scope task receive $end
$var reg 8 A data [7:0] $end
$var integer 32 B i $end
$upscope $end

$scope task verify_led $end
$var reg 8 C expected [7:0] $end
$upscope $end

$scope module dut $end
$var parameter 32 D CLOCKS_PER_PULSE $end
$var wire 1 E CLOCK_50 $end
$var wire 1 F KEY [1] $end
$var wire 1 G KEY [0] $end
$var wire 1 H SW [3] $end
$var wire 1 I SW [2] $end
$var wire 1 J SW [1] $end
$var wire 1 K SW [0] $end
$var wire 1 & LED [7] $end
$var wire 1 ' LED [6] $end
$var wire 1 ( LED [5] $end
$var wire 1 ) LED [4] $end
$var wire 1 * LED [3] $end
$var wire 1 + LED [2] $end
$var wire 1 , LED [1] $end
$var wire 1 - LED [0] $end
$var wire 1 = GPIO_00 $end
$var wire 1 < GPIO_01 $end
$var wire 1 ; GPIO_02 $end
$var wire 1 : GPIO_03 $end
$var wire 1 9 GPIO_04 $end
$var wire 1 8 GPIO_05 $end
$var wire 1 7 GPIO_06 $end
$var wire 1 6 GPIO_07 $end
$var wire 1 5 GPIO_08 $end
$var wire 1 4 GPIO_09 $end
$var wire 1 3 GPIO_010 $end
$var wire 1 2 GPIO_011 $end
$var wire 1 1 GPIO_012 $end
$var wire 1 0 GPIO_013 $end
$var wire 1 / GPIO_014 $end
$var wire 1 . GPIO_015 $end
$var wire 1 L tx $end
$var wire 1 M tx_busy $end
$var wire 1 N ready $end
$var wire 1 O led_out [7] $end
$var wire 1 P led_out [6] $end
$var wire 1 Q led_out [5] $end
$var wire 1 R led_out [4] $end
$var wire 1 S led_out [3] $end
$var wire 1 T led_out [2] $end
$var wire 1 U led_out [1] $end
$var wire 1 V led_out [0] $end
$var wire 1 W tx_display_out [6] $end
$var wire 1 X tx_display_out [5] $end
$var wire 1 Y tx_display_out [4] $end
$var wire 1 Z tx_display_out [3] $end
$var wire 1 [ tx_display_out [2] $end
$var wire 1 \ tx_display_out [1] $end
$var wire 1 ] tx_display_out [0] $end
$var wire 1 ^ rx_display_out [6] $end
$var wire 1 _ rx_display_out [5] $end
$var wire 1 ` rx_display_out [4] $end
$var wire 1 a rx_display_out [3] $end
$var wire 1 b rx_display_out [2] $end
$var wire 1 c rx_display_out [1] $end
$var wire 1 d rx_display_out [0] $end

$scope module u_uart $end
$var parameter 32 e CLOCKS_PER_PULSE $end
$var wire 1 H data_in [3] $end
$var wire 1 I data_in [2] $end
$var wire 1 J data_in [1] $end
$var wire 1 K data_in [0] $end
$var wire 1 f data_en $end
$var wire 1 E clk $end
$var wire 1 G rstn $end
$var wire 1 L tx $end
$var wire 1 M tx_busy $end
$var wire 1 g ready_clr $end
$var wire 1 5 rx $end
$var wire 1 N ready $end
$var wire 1 O led_out [7] $end
$var wire 1 P led_out [6] $end
$var wire 1 Q led_out [5] $end
$var wire 1 R led_out [4] $end
$var wire 1 S led_out [3] $end
$var wire 1 T led_out [2] $end
$var wire 1 U led_out [1] $end
$var wire 1 V led_out [0] $end
$var wire 1 ^ rx_display_out [6] $end
$var wire 1 _ rx_display_out [5] $end
$var wire 1 ` rx_display_out [4] $end
$var wire 1 a rx_display_out [3] $end
$var wire 1 b rx_display_out [2] $end
$var wire 1 c rx_display_out [1] $end
$var wire 1 d rx_display_out [0] $end
$var wire 1 W tx_display_out [6] $end
$var wire 1 X tx_display_out [5] $end
$var wire 1 Y tx_display_out [4] $end
$var wire 1 Z tx_display_out [3] $end
$var wire 1 [ tx_display_out [2] $end
$var wire 1 \ tx_display_out [1] $end
$var wire 1 ] tx_display_out [0] $end
$var wire 1 h tx_data [7] $end
$var wire 1 i tx_data [6] $end
$var wire 1 j tx_data [5] $end
$var wire 1 k tx_data [4] $end
$var wire 1 l tx_data [3] $end
$var wire 1 m tx_data [2] $end
$var wire 1 n tx_data [1] $end
$var wire 1 o tx_data [0] $end
$var wire 1 p rx_data [7] $end
$var wire 1 q rx_data [6] $end
$var wire 1 r rx_data [5] $end
$var wire 1 s rx_data [4] $end
$var wire 1 t rx_data [3] $end
$var wire 1 u rx_data [2] $end
$var wire 1 v rx_data [1] $end
$var wire 1 w rx_data [0] $end

$scope module uart_tx $end
$var parameter 32 x CLOCKS_PER_PULSE $end
$var parameter 2 y TX_IDLE $end
$var parameter 2 z TX_START $end
$var parameter 2 { TX_DATA $end
$var parameter 2 | TX_STOP $end
$var wire 1 h data_in [7] $end
$var wire 1 i data_in [6] $end
$var wire 1 j data_in [5] $end
$var wire 1 k data_in [4] $end
$var wire 1 l data_in [3] $end
$var wire 1 m data_in [2] $end
$var wire 1 n data_in [1] $end
$var wire 1 o data_in [0] $end
$var wire 1 f data_en $end
$var wire 1 E clk $end
$var wire 1 G rstn $end
$var reg 1 } tx $end
$var wire 1 M tx_busy $end
$var reg 2 ~ state [1:0] $end
$var reg 8 !! data_reg [7:0] $end
$var reg 3 "! bit_count [2:0] $end
$var reg 6 #! clk_count [5:0] $end
$var reg 1 $! data_en_d $end
$var wire 1 %! start_pulse $end
$upscope $end

$scope module uart_rx $end
$var parameter 32 &! CLOCKS_PER_PULSE $end
$var parameter 2 '! RX_IDLE $end
$var parameter 2 (! RX_START $end
$var parameter 2 )! RX_DATA $end
$var parameter 2 *! RX_STOP $end
$var wire 1 E clk $end
$var wire 1 G rstn $end
$var wire 1 g ready_clr $end
$var wire 1 5 rx $end
$var reg 1 +! ready $end
$var wire 1 p data_out [7] $end
$var wire 1 q data_out [6] $end
$var wire 1 r data_out [5] $end
$var wire 1 s data_out [4] $end
$var wire 1 t data_out [3] $end
$var wire 1 u data_out [2] $end
$var wire 1 v data_out [1] $end
$var wire 1 w data_out [0] $end
$var reg 2 ,! state [1:0] $end
$var reg 3 -! bit_count [2:0] $end
$var reg 6 .! clk_count [5:0] $end
$var reg 8 /! data_reg [7:0] $end
$var reg 1 0! rx_sync_1 $end
$var reg 1 1! rx_sync_2 $end
$upscope $end

$scope module tx_converter $end
$var wire 1 H data_in [3] $end
$var wire 1 I data_in [2] $end
$var wire 1 J data_in [1] $end
$var wire 1 K data_in [0] $end
$var wire 1 W data_out [6] $end
$var wire 1 X data_out [5] $end
$var wire 1 Y data_out [4] $end
$var wire 1 Z data_out [3] $end
$var wire 1 [ data_out [2] $end
$var wire 1 \ data_out [1] $end
$var wire 1 ] data_out [0] $end
$var reg 7 2! seg_raw [6:0] $end
$upscope $end

$scope module rx_converter $end
$var wire 1 t data_in [3] $end
$var wire 1 u data_in [2] $end
$var wire 1 v data_in [1] $end
$var wire 1 w data_in [0] $end
$var wire 1 ^ data_out [6] $end
$var wire 1 _ data_out [5] $end
$var wire 1 ` data_out [4] $end
$var wire 1 a data_out [3] $end
$var wire 1 b data_out [2] $end
$var wire 1 c data_out [1] $end
$var wire 1 d data_out [0] $end
$var reg 7 3! seg_raw [6:0] $end
$upscope $end
$upscope $end
$upscope $end
$upscope $end
$enddefinitions $end
#0
$dumpvars
0#
b10 $
b0 %
1?
1}
b0 ~
b0 !!
b0 "!
b0 #!
0$!
0+!
b0 ,!
b0 -!
b0 .!
b0 /!
10!
11!
b111111 2!
b111111 3!
bx @
bx A
bx C
b110010 !
b110010 D
b110010 e
b110010 x
b0 y
b1 z
b10 {
b11 |
b110010 &!
b0 '!
b1 (!
b10 )!
b11 *!
r20 "
bx B
0-
0,
0+
0*
0)
0(
0'
0&
0=
0<
0;
0:
09
08
17
16
15
04
03
02
01
00
0/
1.
1>
1L
0M
0N
0V
0U
0T
0S
0R
0Q
0P
0O
0]
0\
0[
0Z
0Y
0X
1W
0d
0c
0b
0a
0`
0_
1^
0o
0n
0m
0l
0k
0j
0i
0h
0w
0v
0u
0t
0s
0r
0q
0p
0%!
0K
0J
0I
0H
0G
1F
0E
0g
0f
$end
#10000
1#
1E
#20000
0#
0E
#30000
1#
1E
#40000
0#
0E
#50000
1#
1E
#60000
0#
0E
#70000
1#
1E
#80000
0#
0E
#90000
1#
1E
b11 $
1G
#100000
0#
0E
#110000
1#
1E
#120000
0#
0E
#130000
1#
1E
#140000
0#
0E
#150000
1#
1E
#160000
0#
0E
#170000
1#
1E
#180000
0#
0E
#190000
1#
1E
b1010 @
b1010 %
b1 $
0F
1J
1H
1f
1%!
1n
1l
b1110111 2!
1Z
0W
07
1:
#200000
0#
0E
#210000
1#
1E
b11 $
1F
0f
0%!
1$!
b1010 !!
b1 ~
1M
#220000
0#
0E
#230000
1#
1E
0$!
0}
b1 #!
0L
06
0>
#240000
0#
0E
#250000
1#
1E
b10 #!
#260000
0#
0E
#270000
1#
1E
b11 #!
#280000
0#
0E
#290000
1#
1E
b100 #!
#300000
0#
0E
#310000
1#
1E
b101 #!
#320000
0#
0E
#330000
1#
1E
b110 #!
#340000
0#
0E
#350000
1#
1E
b111 #!
#360000
0#
0E
#370000
1#
1E
b1000 #!
#380000
0#
0E
#390000
1#
1E
b1001 #!
#400000
0#
0E
#410000
1#
1E
b1010 #!
#420000
0#
0E
#430000
1#
1E
b1011 #!
#440000
0#
0E
#450000
1#
1E
b1100 #!
#460000
0#
0E
#470000
1#
1E
b1101 #!
#480000
0#
0E
#490000
1#
1E
b1110 #!
#500000
0#
0E
#510000
1#
1E
b1111 #!
#520000
0#
0E
#530000
1#
1E
b10000 #!
#540000
0#
0E
#550000
1#
1E
b10001 #!
#560000
0#
0E
#570000
1#
1E
b10010 #!
#580000
0#
0E
#590000
1#
1E
b10011 #!
#600000
0#
0E
#610000
1#
1E
b10100 #!
#620000
0#
0E
#630000
1#
1E
b10101 #!
#640000
0#
0E
#650000
1#
1E
b10110 #!
#660000
0#
0E
#670000
1#
1E
b10111 #!
#680000
0#
0E
#690000
1#
1E
b11000 #!
#700000
0#
0E
#710000
1#
1E
b11001 #!
#720000
0#
0E
#730000
1#
1E
b11010 #!
#740000
0#
0E
#750000
1#
1E
b11011 #!
#760000
0#
0E
#770000
1#
1E
b11100 #!
#780000
0#
0E
#790000
1#
1E
b11101 #!
#800000
0#
0E
#810000
1#
1E
b11110 #!
#820000
0#
0E
#830000
1#
1E
b11111 #!
#840000
0#
0E
#850000
1#
1E
b100000 #!
#860000
0#
0E
#870000
1#
1E
b100001 #!
#880000
0#
0E
#890000
1#
1E
b100010 #!
#900000
0#
0E
#910000
1#
1E
b100011 #!
#920000
0#
0E
#930000
1#
1E
b100100 #!
#940000
0#
0E
#950000
1#
1E
b100101 #!
#960000
0#
0E
#970000
1#
1E
b100110 #!
#980000
0#
0E
#990000
1#
1E
b100111 #!
#1000000
0#
0E
#1010000
1#
1E
b101000 #!
#1020000
0#
0E
#1030000
1#
1E
b101001 #!
#1040000
0#
0E
#1050000
1#
1E
b101010 #!
#1060000
0#
0E
#1070000
1#
1E
b101011 #!
#1080000
0#
0E
#1090000
1#
1E
b101100 #!
#1100000
0#
0E
#1110000
1#
1E
b101101 #!
#1120000
0#
0E
#1130000
1#
1E
b101110 #!
#1140000
0#
0E
#1150000
1#
1E
b101111 #!
#1160000
0#
0E
#1170000
1#
1E
b110000 #!
#1180000
0#
0E
#1190000
1#
1E
b110001 #!
#1200000
0#
0E
#1210000
1#
1E
b0 #!
b10 ~
#1220000
0#
0E
#1230000
1#
1E
b1 #!
#1240000
0#
0E
#1250000
1#
1E
b10 #!
#1260000
0#
0E
#1270000
1#
1E
b11 #!
#1280000
0#
0E
#1290000
1#
1E
b100 #!
#1300000
0#
0E
#1310000
1#
1E
b101 #!
#1320000
0#
0E
#1330000
1#
1E
b110 #!
#1340000
0#
0E
#1350000
1#
1E
b111 #!
#1360000
0#
0E
#1370000
1#
1E
b1000 #!
#1380000
0#
0E
#1390000
1#
1E
b1001 #!
#1400000
0#
0E
#1410000
1#
1E
b1010 #!
#1420000
0#
0E
#1430000
1#
1E
b1011 #!
#1440000
0#
0E
#1450000
1#
1E
b1100 #!
#1460000
0#
0E
#1470000
1#
1E
b1101 #!
#1480000
0#
0E
#1490000
1#
1E
b1110 #!
#1500000
0#
0E
#1510000
1#
1E
b1111 #!
#1520000
0#
0E
#1530000
1#
1E
b10000 #!
#1540000
0#
0E
#1550000
1#
1E
b10001 #!
#1560000
0#
0E
#1570000
1#
1E
b10010 #!
#1580000
0#
0E
#1590000
1#
1E
b10011 #!
#1600000
0#
0E
#1610000
1#
1E
b10100 #!
#1620000
0#
0E
#1630000
1#
1E
b10101 #!
#1640000
0#
0E
#1650000
1#
1E
b10110 #!
#1660000
0#
0E
#1670000
1#
1E
b10111 #!
#1680000
0#
0E
#1690000
1#
1E
b11000 #!
#1700000
0#
0E
#1710000
1#
1E
b11001 #!
#1720000
0#
0E
#1730000
1#
1E
b11010 #!
#1740000
0#
0E
#1750000
1#
1E
b11011 #!
#1760000
0#
0E
#1770000
1#
1E
b11100 #!
#1780000
0#
0E
#1790000
1#
1E
b11101 #!
#1800000
0#
0E
#1810000
1#
1E
b11110 #!
#1820000
0#
0E
#1830000
1#
1E
b11111 #!
#1840000
0#
0E
#1850000
1#
1E
b100000 #!
#1860000
0#
0E
#1870000
1#
1E
b100001 #!
#1880000
0#
0E
#1890000
1#
1E
b100010 #!
#1900000
0#
0E
#1910000
1#
1E
b100011 #!
#1920000
0#
0E
#1930000
1#
1E
b100100 #!
#1940000
0#
0E
#1950000
1#
1E
b100101 #!
#1960000
0#
0E
#1970000
1#
1E
b100110 #!
#1980000
0#
0E
#1990000
1#
1E
b100111 #!
#2000000
0#
0E
#2010000
1#
1E
b101000 #!
#2020000
0#
0E
#2030000
1#
1E
b101001 #!
#2040000
0#
0E
#2050000
1#
1E
b101010 #!
#2060000
0#
0E
#2070000
1#
1E
b101011 #!
#2080000
0#
0E
#2090000
1#
1E
b101100 #!
#2100000
0#
0E
#2110000
1#
1E
b101101 #!
#2120000
0#
0E
#2130000
1#
1E
b101110 #!
#2140000
0#
0E
#2150000
1#
1E
b101111 #!
#2160000
0#
0E
#2170000
1#
1E
b110000 #!
#2180000
0#
0E
#2190000
1#
1E
b110001 #!
#2200000
0#
0E
#2210000
1#
1E
b0 #!
b1 "!
#2220000
0#
0E
#2230000
1#
1E
1}
b1 #!
1L
16
1>
#2240000
0#
0E
#2250000
1#
1E
b10 #!
#2260000
0#
0E
#2270000
1#
1E
b11 #!
#2280000
0#
0E
#2290000
1#
1E
b100 #!
#2300000
0#
0E
#2310000
1#
1E
b101 #!
#2320000
0#
0E
#2330000
1#
1E
b110 #!
#2340000
0#
0E
#2350000
1#
1E
b111 #!
#2360000
0#
0E
#2370000
1#
1E
b1000 #!
#2380000
0#
0E
#2390000
1#
1E
b1001 #!
#2400000
0#
0E
#2410000
1#
1E
b1010 #!
#2420000
0#
0E
#2430000
1#
1E
b1011 #!
#2440000
0#
0E
#2450000
1#
1E
b1100 #!
#2460000
0#
0E
#2470000
1#
1E
b1101 #!
#2480000
0#
0E
#2490000
1#
1E
b1110 #!
#2500000
0#
0E
#2510000
1#
1E
b1111 #!
#2520000
0#
0E
#2530000
1#
1E
b10000 #!
#2540000
0#
0E
#2550000
1#
1E
b10001 #!
#2560000
0#
0E
#2570000
1#
1E
b10010 #!
#2580000
0#
0E
#2590000
1#
1E
b10011 #!
#2600000
0#
0E
#2610000
1#
1E
b10100 #!
#2620000
0#
0E
#2630000
1#
1E
b10101 #!
#2640000
0#
0E
#2650000
1#
1E
b10110 #!
#2660000
0#
0E
#2670000
1#
1E
b10111 #!
#2680000
0#
0E
#2690000
1#
1E
b11000 #!
#2700000
0#
0E
#2710000
1#
1E
b11001 #!
#2720000
0#
0E
#2730000
1#
1E
b11010 #!
#2740000
0#
0E
#2750000
1#
1E
b11011 #!
#2760000
0#
0E
#2770000
1#
1E
b11100 #!
#2780000
0#
0E
#2790000
1#
1E
b11101 #!
#2800000
0#
0E
#2810000
1#
1E
b11110 #!
#2820000
0#
0E
#2830000
1#
1E
b11111 #!
#2840000
0#
0E
#2850000
1#
1E
b100000 #!
#2860000
0#
0E
#2870000
1#
1E
b100001 #!
#2880000
0#
0E
#2890000
1#
1E
b100010 #!
#2900000
0#
0E
#2910000
1#
1E
b100011 #!
#2920000
0#
0E
#2930000
1#
1E
b100100 #!
#2940000
0#
0E
#2950000
1#
1E
b100101 #!
#2960000
0#
0E
#2970000
1#
1E
b100110 #!
#2980000
0#
0E
#2990000
1#
1E
b100111 #!
#3000000
0#
0E
#3010000
1#
1E
b101000 #!
#3020000
0#
0E
#3030000
1#
1E
b101001 #!
#3040000
0#
0E
#3050000
1#
1E
b101010 #!
#3060000
0#
0E
#3070000
1#
1E
b101011 #!
#3080000
0#
0E
#3090000
1#
1E
b101100 #!
#3100000
0#
0E
#3110000
1#
1E
b101101 #!
#3120000
0#
0E
#3130000
1#
1E
b101110 #!
#3140000
0#
0E
#3150000
1#
1E
b101111 #!
#3160000
0#
0E
#3170000
1#
1E
b110000 #!
#3180000
0#
0E
#3190000
1#
1E
b110001 #!
#3200000
0#
0E
#3210000
1#
1E
b0 #!
b10 "!
#3220000
0#
0E
#3230000
1#
1E
0}
b1 #!
0L
06
0>
#3240000
0#
0E
#3250000
1#
1E
b10 #!
#3260000
0#
0E
#3270000
1#
1E
b11 #!
#3280000
0#
0E
#3290000
1#
1E
b100 #!
#3300000
0#
0E
#3310000
1#
1E
b101 #!
#3320000
0#
0E
#3330000
1#
1E
b110 #!
#3340000
0#
0E
#3350000
1#
1E
b111 #!
#3360000
0#
0E
#3370000
1#
1E
b1000 #!
#3380000
0#
0E
#3390000
1#
1E
b1001 #!
#3400000
0#
0E
#3410000
1#
1E
b1010 #!
#3420000
0#
0E
#3430000
1#
1E
b1011 #!
#3440000
0#
0E
#3450000
1#
1E
b1100 #!
#3460000
0#
0E
#3470000
1#
1E
b1101 #!
#3480000
0#
0E
#3490000
1#
1E
b1110 #!
#3500000
0#
0E
#3510000
1#
1E
b1111 #!
#3520000
0#
0E
#3530000
1#
1E
b10000 #!
#3540000
0#
0E
#3550000
1#
1E
b10001 #!
#3560000
0#
0E
#3570000
1#
1E
b10010 #!
#3580000
0#
0E
#3590000
1#
1E
b10011 #!
#3600000
0#
0E
#3610000
1#
1E
b10100 #!
#3620000
0#
0E
#3630000
1#
1E
b10101 #!
#3640000
0#
0E
#3650000
1#
1E
b10110 #!
#3660000
0#
0E
#3670000
1#
1E
b10111 #!
#3680000
0#
0E
#3690000
1#
1E
b11000 #!
#3700000
0#
0E
#3710000
1#
1E
b11001 #!
#3720000
0#
0E
#3730000
1#
1E
b11010 #!
#3740000
0#
0E
#3750000
1#
1E
b11011 #!
#3760000
0#
0E
#3770000
1#
1E
b11100 #!
#3780000
0#
0E
#3790000
1#
1E
b11101 #!
#3800000
0#
0E
#3810000
1#
1E
b11110 #!
#3820000
0#
0E
#3830000
1#
1E
b11111 #!
#3840000
0#
0E
#3850000
1#
1E
b100000 #!
#3860000
0#
0E
#3870000
1#
1E
b100001 #!
#3880000
0#
0E
#3890000
1#
1E
b100010 #!
#3900000
0#
0E
#3910000
1#
1E
b100011 #!
#3920000
0#
0E
#3930000
1#
1E
b100100 #!
#3940000
0#
0E
#3950000
1#
1E
b100101 #!
#3960000
0#
0E
#3970000
1#
1E
b100110 #!
#3980000
0#
0E
#3990000
1#
1E
b100111 #!
#4000000
0#
0E
#4010000
1#
1E
b101000 #!
#4020000
0#
0E
#4030000
1#
1E
b101001 #!
#4040000
0#
0E
#4050000
1#
1E
b101010 #!
#4060000
0#
0E
#4070000
1#
1E
b101011 #!
#4080000
0#
0E
#4090000
1#
1E
b101100 #!
#4100000
0#
0E
#4110000
1#
1E
b101101 #!
#4120000
0#
0E
#4130000
1#
1E
b101110 #!
#4140000
0#
0E
#4150000
1#
1E
b101111 #!
#4160000
0#
0E
#4170000
1#
1E
b110000 #!
#4180000
0#
0E
#4190000
1#
1E
b110001 #!
#4200000
0#
0E
#4210000
1#
1E
b0 #!
b11 "!
#4220000
0#
0E
#4230000
1#
1E
1}
b1 #!
1L
16
1>
#4240000
0#
0E
#4250000
1#
1E
b10 #!
#4260000
0#
0E
#4270000
1#
1E
b11 #!
#4280000
0#
0E
#4290000
1#
1E
b100 #!
#4300000
0#
0E
#4310000
1#
1E
b101 #!
#4320000
0#
0E
#4330000
1#
1E
b110 #!
#4340000
0#
0E
#4350000
1#
1E
b111 #!
#4360000
0#
0E
#4370000
1#
1E
b1000 #!
#4380000
0#
0E
#4390000
1#
1E
b1001 #!
#4400000
0#
0E
#4410000
1#
1E
b1010 #!
#4420000
0#
0E
#4430000
1#
1E
b1011 #!
#4440000
0#
0E
#4450000
1#
1E
b1100 #!
#4460000
0#
0E
#4470000
1#
1E
b1101 #!
#4480000
0#
0E
#4490000
1#
1E
b1110 #!
#4500000
0#
0E
#4510000
1#
1E
b1111 #!
#4520000
0#
0E
#4530000
1#
1E
b10000 #!
#4540000
0#
0E
#4550000
1#
1E
b10001 #!
#4560000
0#
0E
#4570000
1#
1E
b10010 #!
#4580000
0#
0E
#4590000
1#
1E
b10011 #!
#4600000
0#
0E
#4610000
1#
1E
b10100 #!
#4620000
0#
0E
#4630000
1#
1E
b10101 #!
#4640000
0#
0E
#4650000
1#
1E
b10110 #!
#4660000
0#
0E
#4670000
1#
1E
b10111 #!
#4680000
0#
0E
#4690000
1#
1E
b11000 #!
#4700000
0#
0E
#4710000
1#
1E
b11001 #!
#4720000
0#
0E
#4730000
1#
1E
b11010 #!
#4740000
0#
0E
#4750000
1#
1E
b11011 #!
#4760000
0#
0E
#4770000
1#
1E
b11100 #!
#4780000
0#
0E
#4790000
1#
1E
b11101 #!
#4800000
0#
0E
#4810000
1#
1E
b11110 #!
#4820000
0#
0E
#4830000
1#
1E
b11111 #!
#4840000
0#
0E
#4850000
1#
1E
b100000 #!
#4860000
0#
0E
#4870000
1#
1E
b100001 #!
#4880000
0#
0E
#4890000
1#
1E
b100010 #!
#4900000
0#
0E
#4910000
1#
1E
b100011 #!
#4920000
0#
0E
#4930000
1#
1E
b100100 #!
#4940000
0#
0E
#4950000
1#
1E
b100101 #!
#4960000
0#
0E
#4970000
1#
1E
b100110 #!
#4980000
0#
0E
#4990000
1#
1E
b100111 #!
#5000000
0#
0E
#5010000
1#
1E
b101000 #!
#5020000
0#
0E
#5030000
1#
1E
b101001 #!
#5040000
0#
0E
#5050000
1#
1E
b101010 #!
#5060000
0#
0E
#5070000
1#
1E
b101011 #!
#5080000
0#
0E
#5090000
1#
1E
b101100 #!
#5100000
0#
0E
#5110000
1#
1E
b101101 #!
#5120000
0#
0E
#5130000
1#
1E
b101110 #!
#5140000
0#
0E
#5150000
1#
1E
b101111 #!
#5160000
0#
0E
#5170000
1#
1E
b110000 #!
#5180000
0#
0E
#5190000
1#
1E
b110001 #!
#5200000
0#
0E
#5210000
1#
1E
b0 #!
b100 "!
#5220000
0#
0E
#5230000
1#
1E
0}
b1 #!
0L
06
0>
#5240000
0#
0E
#5250000
1#
1E
b10 #!
#5260000
0#
0E
#5270000
1#
1E
b11 #!
#5280000
0#
0E
#5290000
1#
1E
b100 #!
#5300000
0#
0E
#5310000
1#
1E
b101 #!
#5320000
0#
0E
#5330000
1#
1E
b110 #!
#5340000
0#
0E
#5350000
1#
1E
b111 #!
#5360000
0#
0E
#5370000
1#
1E
b1000 #!
#5380000
0#
0E
#5390000
1#
1E
b1001 #!
#5400000
0#
0E
#5410000
1#
1E
b1010 #!
#5420000
0#
0E
#5430000
1#
1E
b1011 #!
#5440000
0#
0E
#5450000
1#
1E
b1100 #!
#5460000
0#
0E
#5470000
1#
1E
b1101 #!
#5480000
0#
0E
#5490000
1#
1E
b1110 #!
#5500000
0#
0E
#5510000
1#
1E
b1111 #!
#5520000
0#
0E
#5530000
1#
1E
b10000 #!
#5540000
0#
0E
#5550000
1#
1E
b10001 #!
#5560000
0#
0E
#5570000
1#
1E
b10010 #!
#5580000
0#
0E
#5590000
1#
1E
b10011 #!
#5600000
0#
0E
#5610000
1#
1E
b10100 #!
#5620000
0#
0E
#5630000
1#
1E
b10101 #!
#5640000
0#
0E
#5650000
1#
1E
b10110 #!
#5660000
0#
0E
#5670000
1#
1E
b10111 #!
#5680000
0#
0E
#5690000
1#
1E
b11000 #!
#5700000
0#
0E
#5710000
1#
1E
b11001 #!
#5720000
0#
0E
#5730000
1#
1E
b11010 #!
#5740000
0#
0E
#5750000
1#
1E
b11011 #!
#5760000
0#
0E
#5770000
1#
1E
b11100 #!
#5780000
0#
0E
#5790000
1#
1E
b11101 #!
#5800000
0#
0E
#5810000
1#
1E
b11110 #!
#5820000
0#
0E
#5830000
1#
1E
b11111 #!
#5840000
0#
0E
#5850000
1#
1E
b100000 #!
#5860000
0#
0E
#5870000
1#
1E
b100001 #!
#5880000
0#
0E
#5890000
1#
1E
b100010 #!
#5900000
0#
0E
#5910000
1#
1E
b100011 #!
#5920000
0#
0E
#5930000
1#
1E
b100100 #!
#5940000
0#
0E
#5950000
1#
1E
b100101 #!
#5960000
0#
0E
#5970000
1#
1E
b100110 #!
#5980000
0#
0E
#5990000
1#
1E
b100111 #!
#6000000
0#
0E
#6010000
1#
1E
b101000 #!
#6020000
0#
0E
#6030000
1#
1E
b101001 #!
#6040000
0#
0E
#6050000
1#
1E
b101010 #!
#6060000
0#
0E
#6070000
1#
1E
b101011 #!
#6080000
0#
0E
#6090000
1#
1E
b101100 #!
#6100000
0#
0E
#6110000
1#
1E
b101101 #!
#6120000
0#
0E
#6130000
1#
1E
b101110 #!
#6140000
0#
0E
#6150000
1#
1E
b101111 #!
#6160000
0#
0E
#6170000
1#
1E
b110000 #!
#6180000
0#
0E
#6190000
1#
1E
b110001 #!
#6200000
0#
0E
#6210000
1#
1E
b0 #!
b101 "!
#6220000
0#
0E
#6230000
1#
1E
b1 #!
#6240000
0#
0E
#6250000
1#
1E
b10 #!
#6260000
0#
0E
#6270000
1#
1E
b11 #!
#6280000
0#
0E
#6290000
1#
1E
b100 #!
#6300000
0#
0E
#6310000
1#
1E
b101 #!
#6320000
0#
0E
#6330000
1#
1E
b110 #!
#6340000
0#
0E
#6350000
1#
1E
b111 #!
#6360000
0#
0E
#6370000
1#
1E
b1000 #!
#6380000
0#
0E
#6390000
1#
1E
b1001 #!
#6400000
0#
0E
#6410000
1#
1E
b1010 #!
#6420000
0#
0E
#6430000
1#
1E
b1011 #!
#6440000
0#
0E
#6450000
1#
1E
b1100 #!
#6460000
0#
0E
#6470000
1#
1E
b1101 #!
#6480000
0#
0E
#6490000
1#
1E
b1110 #!
#6500000
0#
0E
#6510000
1#
1E
b1111 #!
#6520000
0#
0E
#6530000
1#
1E
b10000 #!
#6540000
0#
0E
#6550000
1#
1E
b10001 #!
#6560000
0#
0E
#6570000
1#
1E
b10010 #!
#6580000
0#
0E
#6590000
1#
1E
b10011 #!
#6600000
0#
0E
#6610000
1#
1E
b10100 #!
#6620000
0#
0E
#6630000
1#
1E
b10101 #!
#6640000
0#
0E
#6650000
1#
1E
b10110 #!
#6660000
0#
0E
#6670000
1#
1E
b10111 #!
#6680000
0#
0E
#6690000
1#
1E
b11000 #!
#6700000
0#
0E
#6710000
1#
1E
b11001 #!
#6720000
0#
0E
#6730000
1#
1E
b11010 #!
#6740000
0#
0E
#6750000
1#
1E
b11011 #!
#6760000
0#
0E
#6770000
1#
1E
b11100 #!
#6780000
0#
0E
#6790000
1#
1E
b11101 #!
#6800000
0#
0E
#6810000
1#
1E
b11110 #!
#6820000
0#
0E
#6830000
1#
1E
b11111 #!
#6840000
0#
0E
#6850000
1#
1E
b100000 #!
#6860000
0#
0E
#6870000
1#
1E
b100001 #!
#6880000
0#
0E
#6890000
1#
1E
b100010 #!
#6900000
0#
0E
#6910000
1#
1E
b100011 #!
#6920000
0#
0E
#6930000
1#
1E
b100100 #!
#6940000
0#
0E
#6950000
1#
1E
b100101 #!
#6960000
0#
0E
#6970000
1#
1E
b100110 #!
#6980000
0#
0E
#6990000
1#
1E
b100111 #!
#7000000
0#
0E
#7010000
1#
1E
b101000 #!
#7020000
0#
0E
#7030000
1#
1E
b101001 #!
#7040000
0#
0E
#7050000
1#
1E
b101010 #!
#7060000
0#
0E
#7070000
1#
1E
b101011 #!
#7080000
0#
0E
#7090000
1#
1E
b101100 #!
#7100000
0#
0E
#7110000
1#
1E
b101101 #!
#7120000
0#
0E
#7130000
1#
1E
b101110 #!
#7140000
0#
0E
#7150000
1#
1E
b101111 #!
#7160000
0#
0E
#7170000
1#
1E
b110000 #!
#7180000
0#
0E
#7190000
1#
1E
b110001 #!
#7200000
0#
0E
